ruppd@aldenv165:~/cs111F2014/cs111F2014-ruppd/lab2$ javac Lab2.java
ruppd@aldenv165:~/cs111F2014/cs111F2014-ruppd/lab2$ java Lab2
Darby Rupp
Lab 2
Thu Sep 11 15:55:48 EDT 2014

Enter Fahrenheit value: 82
Fahrenheit value is: 82.0
Celsius value is: 27.77777777777778
Kelvin value is: 300.9277777777778

